{
  "default": {
    "Acetate.uM__": ["acetate.uM", "acetate uM"],
    "Sulfate.uM__": ["sulfate.uM", "sulfate (uM)"],
    "Phosphate.uM__": ["phosphate.uM", "phosphate uM"],
    "Nitrate.uM__": ["nitrate.uM", "nitrate (uM)"],
    "Ammonia.uM__": ["ammonia.uM", "ammonia (uM)"],
    "C.percent__": ["percentC_wt", "C (%)"],
    "N.percent__": ["percentN_wt", "N (%)"],
    "S.percent__": ["S (%)"],
    "CH4.mM__": ["CH4.mM_HenryLaw", "CH4mM"],
    "CO2.mM__": ["DIC.mM_HenryLaw", "CO2mM"],
    "d13C_CH4__": ["d13C_CH4", "d13CH4"],
    "d13C_CO2__": ["d13C_DIC", "d13C_CO2", "d13CO2"],
    "dD_CH4__": ["dD_CH4"],
    "DOC.mM__": ["DOC.mM", "DOCmM"],
    "TN.mM__": ["TN.mM", "TN (mM)"],
    "D14C_peat__": ["D14C"],
    "d13C_peat__": ["d13C"],
    "d15N_peat__": ["d15N"]
  },
  "0038_Geochem_Wilson": {
    "Propionate.uM__": ["propionate"],
    "Butyrate.uM__": ["butyrate"],
    "Formate.uM__": ["Formate"]
  },
  "0067_CH4Oxidation_Perryman": {
    "Water_Table_Depth_WTD.cm_neg_is_below_sfc": ["WTD"],
    "Active_Layer_Depth_ALD.cm": ["active_layer"],
    "Core__": ["replicate"],
    "DepthMin__": ["top_cm"],
    "DepthMax__": ["bottom_cm"],
    "CH4.mM__": ["dissolved_CH4"],
    "Sulfate.mgS.L": ["SO4"],
    "Nitrate.mgN.L": ["NO3"],
    "Mn.ppb": ["Mn"],
    "Fe.ppb": ["Fe"],
    "inc_oxidation_rate.ugCH4.gdw.h": ["ox_rate"]
  }
}
